Vignette mgx2r - basics • mgx2r
…
Over the rest of the vignette I will only show examples of visualisation with Plotly, but there is another 3D library in R called RGL.

rgl::shade3d(myMesh)

To change mesh color and display the new color, you can use the following command.

myMesh$material$color <- myMesh$allColors$Col_signal
rgl::shade3d(myMesh)

Information relative to cells and cell walls (resp. vertices and edges of the cell graph) are stored in a second .ply that I read with the modified_read.cellGraph() function that I wrote myself. The modified_read.cellGraph() function reads the cell graph .ply and extract two dataframes (one for the vertices informations and one for the edges informations). These two dataframes are then combined into a list.

myCellGraph <- read_mgxCellGraph(fileCellGraph = fileCellGraph, header_max = 30)
myCellGraph
#> $vertices
#> # A tibble: 376 x 15
#>    label     x      y       z GeometryArea CellAxiscurv10m…
#>    <int> <dbl>  <dbl>   <dbl>        <dbl>            <int>
#>  1     3 -55.0  31.5  -3.20           33.5                9
#>  2     7 -51.3  18.6   0.0779         46.8                9
#>  3     6 -50.4  24.8  -0.0119         27.2                9
#>  4     5 -53.1  26.9  -1.39           19.7                9
#>  5     2 -51.4  37.0  -4.00           38.4                9
#>  6     1 -49.7  41.5  -6.23           35.4                9
#>  7    18 -46.9 -10.5  -6.18           40.5                9
#>  8    11 -48.0   6.85 -0.224          22.5                9
#>  9     8 -47.8  12.5   1.07           27.9                9
#> 10     4 -49.5  31.8  -1.64           28.1                9
#> # ... with 366 more rows, and 9 more variables:
#> #   CellAxiscurv10microns.1 <dbl>, CellAxiscurv10microns.2 <dbl>,
#> #   CellAxiscurv10microns.3 <dbl>, CellAxiscurv10microns.4 <dbl>,
#> #   CellAxiscurv10microns.5 <dbl>, CellAxiscurv10microns.6 <dbl>,
#> #   CellAxiscurv10microns.7 <dbl>, CellAxiscurv10microns.8 <dbl>,
#> #   CellAxiscurv10microns.9 <int>
#> 
#> $edges
#> # A tibble: 2,160 x 2
#>    source target
#>     <int>  <int>
#>  1      3      5
#>  2      3      4
#>  3      3      2
#>  4      7      8
#>  5      7      9
#>  6      7     98
#>  7      7      6
#>  8      6      5
#>  9      6      7
#> 10      6     98
#> # ... with 2,150 more rows
…
